
{"headers":{},"original":{"status":"success","message":"API responses merged successfully","bannerimage":"","breadcrumb":[{"maincategory":"\u0bae\u0bc1\u0ba4\u0bb2\u0bcd \u0baa\u0b95\u0bcd\u0b95\u0bae\u0bcd","maincategoryid":"Home Page","title":"\u0ba4\u0bc7\u0b9f\u0bb2\u0bcd \u0bae\u0bc1\u0b9f\u0bbf\u0bb5\u0bc1\u0b95\u0bb3\u0bcd","link":"","id":"search","slug":"\/search","searchvalue":"tamil"}],"date":"2026-04-12 13:06:22","detail":[{"id":336012,"newstitle":"\u0b85\u0bae\u0bc8\u0b9a\u0bcd\u0b9a\u0bb0\u0bc8\u0baf\u0bc7 \u0ba4\u0bca\u0b95\u0bc1\u0ba4\u0bbf \u0bae\u0bbe\u0bb1\u0bbf \u0baa\u0bcb\u0b95 \u0bb5\u0bc8\u0ba4\u0bcd\u0ba4 \u0baa\u0bbf\u0ba9\u0bcd\u0ba9\u0ba3\u0bbf | Mutharaiyar Community | Tamil Nadu Elections","newsenglishtitle":"","newsdescription":"\u0ba4\u0bae\u0bbf\u0bb4\u0b95\u0ba4\u0bcd\u0ba4\u0bbf\u0bb2\u0bcd \u0ba4\u0bbf\u0bb0\u0bc1\u0b9a\u0bcd\u0b9a\u0bbf, \u0ba4\u0b9e\u0bcd\u0b9a\u0bc8, \u0baa\u0bc1\u0ba4\u0bc1\u0b95\u0bcd\u0b95\u0bcb\u0b9f\u0bcd\u0b9f\u0bc8, \u0b95\u0bb0\u0bc2\u0bb0\u0bcd, \u0b9a\u0bbf\u0bb5\u0b95\u0b99\u0bcd\u0b95\u0bc8, \u0baa\u0bc6\u0bb0\u0bae\u0bcd\u0baa\u0bb2\u0bc1\u0bbe\u0bb0\u0bcd, \u0b85\u0bb0\u0bbf\u0baf\u0bb2\u0bc1\u0bbe\u0bb0\u0bcd, \u0ba4\u0bbf\u0ba3\u0bcd\u0b9f\u0bc1\u0b95\u0bcd\u0b95\u0bb2\u0bcd \u0b89\u0bb3\u0bcd\u0bb3...","newsdate":"2026-03-28 04:00:00","standarddate":"\u0bae\u0bbe\u0bb0\u0bcd 28, 2026","date":"28-03-2026","time":"04:00","ago":"28-Mar-2026","images":"https:\/\/images.dinamalar.com\/data\/video_2024\/V1_336012_L.jpg?im=Resize,width=300","newscomment":0,"maincat":"\u0b85\u0bb0\u0b9a\u0bbf\u0baf\u0bb2\u0bcd","maincateng":"video","maincatid":"31","audio":"0","video":"1","path":"https:\/\/www.youtube.com\/embed\/ykktkNEPjI4","slug":"\/videos\/politics-tamil-videos\/mutharaiyar-community--tamil-nadu-elections\/336012","reacturl":"\/dinamalartv\/336012","catslug":"\/videos\/politics-tamil-videos","type":"video","duration":"01:58"},{"id":335841,"newstitle":"\u0ba4\u0bae\u0bbf\u0bb4\u0bb0\u0bcd\u0b95\u0bb3\u0bbf\u0ba9\u0bcd \u0baa\u0bbe\u0bb0\u0bae\u0bcd\u0baa\u0bb0\u0bbf\u0baf\u0ba4\u0bcd\u0ba4\u0bc8 \u0bb5\u0bbf\u0bb5\u0bb0\u0bbf\u0b95\u0bcd\u0b95\u0bc1\u0bae\u0bcd \u0b9a\u0b99\u0bcd\u0b95 \u0b87\u0bb2\u0b95\u0bcd\u0b95\u0bbf\u0baf \u0baa\u0bc2\u0b99\u0bcd\u0b95\u0bbe","newsenglishtitle":"","newsdescription":"\u0b95\u0bc7\u0bbe\u0bb5\u0bc8 \u0b95\u0bbe\u0bb3\u0baa\u0bcd\u0baa\u0b9f\u0bcd\u0b9f\u0bbf\u0baf\u0bbf\u0bb2\u0bcd \u0bb5\u0bbf\u0ba4\u0bcd\u0ba4\u0bbf\u0baf\u0bbe\u0b9a\u0bae\u0bbe\u0ba9 \u0baa\u0bc2\u0b99\u0bcd\u0b95\u0bbe \u0b85\u0bae\u0bc8\u0b95\u0bcd\u0b95\u0baa\u0bcd\u0baa\u0b9f\u0bcd\u0b9f\u0bc1\u0bb3\u0bcd\u0bb3\u0ba4\u0bc1. \u0b9a\u0b99\u0bcd\u0b95 \u0b87\u0bb2\u0b95\u0bcd\u0b95\u0bbf\u0baf\u0b99\u0bcd\u0b95\u0bb3\u0bbf\u0bb2\u0bcd \u0b9a\u0bc6\u0bbe\u0bb2\u0bcd\u0bb2\u0baa\u0bcd\u0baa\u0b9f\u0bcd\u0b9f\u0bc1\u0bb3\u0bcd\u0bb3 \u0ba4\u0bbe...","newsdate":"2026-03-25 00:00:00","standarddate":"\u0bae\u0bbe\u0bb0\u0bcd 25, 2026","date":"25-03-2026","time":"00:00","ago":"25-Mar-2026","images":"https:\/\/images.dinamalar.com\/data\/video_2024\/V1_335841_L.jpg?im=Resize,width=300","newscomment":0,"maincat":"\u0b95\u0bcb\u0baf\u0bae\u0bcd\u0baa\u0bc1\u0ba4\u0bcd\u0ba4\u0bc2\u0bb0\u0bcd","maincateng":"video","maincatid":"1585","audio":"0","video":"1","path":"https:\/\/www.youtube.com\/embed\/80Mla5RfojI","slug":"\/videos\/district-news-videos\/coimbatore\/sangailaikiyampark-25326\/335841","reacturl":"\/dinamalartv\/335841","catslug":"\/videos\/district-news-videos\/coimbatore?district=287","type":"video","duration":"04:48"},{"id":335747,"newstitle":"\u0ba4\u0bae\u0bbf\u0bb4\u0b95\u0ba4\u0bcd\u0ba4\u0bbf\u0bb2\u0bcd \u0b8e\u0b99\u0bcd\u0b95\u0bc6\u0b99\u0bcd\u0b95\u0bc1  \u0bae\u0bb4\u0bc8 \u0baa\u0bc6\u0baf\u0bcd\u0baf \u0bb5\u0bbe\u0baf\u0bcd\u0baa\u0bcd\u0baa\u0bc1  TN Rain | Summer | Tamil Nadu Weather","newsenglishtitle":"","newsdescription":"\u0ba4\u0bae\u0bbf\u0bb4\u0b95\u0bae\u0bcd, \u0baa\u0bc1\u0ba4\u0bc1\u0b9a\u0bcd\u0b9a\u0bc7\u0bb0\u0bbf\u0baf\u0bbf\u0bb2\u0bcd \u0bb5\u0bb0\u0bc1\u0bae\u0bcd 26\u0bae\u0bcd \u0ba4\u0bc7\u0ba4\u0bbf \u0bb5\u0bb0\u0bc8 \u0bb5\u0bb1\u0ba3\u0bcd\u0b9f \u0bb5\u0bbe\u0ba9\u0bbf\u0bb2\u0bc8 \u0ba8\u0bbf\u0bb2\u0bb5\u0b95\u0bcd\u0b95\u0bc2\u0b9f\u0bc1\u0bae\u0bcd \u0b8e\u0ba9 \u0b95\u0ba3\u0bbf\u0b95\u0bcd\u0b95\u0baa\u0bcd\u0baa\u0b9f\u0bcd\u0b9f\u0bc1 \u0b89\u0bb3\u0bcd\u0bb3\u0ba4\u0bc1.\r\n\r\n26...","newsdate":"2026-03-24 17:55:00","standarddate":"\u0bae\u0bbe\u0bb0\u0bcd 24, 2026","date":"24-03-2026","time":"17:55","ago":"24-Mar-2026","images":"https:\/\/images.dinamalar.com\/data\/video_2024\/V1_335747_L.jpg?im=Resize,width=300","newscomment":0,"maincat":"\u0baa\u0bca\u0ba4\u0bc1","maincateng":"video","maincatid":"32","audio":"0","video":"1","path":"https:\/\/www.youtube.com\/embed\/nbtEYrjxHpE","slug":"\/videos\/general-tamil-videos\/tamil-nadu-weather\/335747","reacturl":"\/dinamalartv\/335747","catslug":"\/videos\/general-tamil-videos","type":"video","duration":":50"},{"id":335728,"newstitle":"\u0ba4\u0bca\u0b95\u0bc1\u0ba4\u0bbf \u0baa\u0b99\u0bcd\u0b95\u0bc0\u0b9f\u0bcd\u0b9f\u0bbf\u0bb2\u0bcd \u0b8e\u0b99\u0bcd\u0b95\u0bb3\u0bc1\u0b95\u0bcd\u0b95\u0bc1 \u0b93\u0b95\u0bc7; \u0b9c\u0bbf.\u0b95\u0bc7. \u0bb5\u0bbe\u0b9a\u0ba9\u0bcd \u0bb5\u0bbf\u0bb3\u0b95\u0bcd\u0b95\u0bae\u0bcd | GK Vasan | Tamil Nadu Politics | NDA","newsenglishtitle":"","newsdescription":"\u0ba4\u0bca\u0b95\u0bc1\u0ba4\u0bbf \u0baa\u0b99\u0bcd\u0b95\u0bc0\u0b9f\u0bc1 \u0baa\u0bc7\u0b9a\u0bcd\u0b9a\u0bc1\u0bb5\u0bbe\u0bb0\u0bcd\u0ba4\u0bcd\u0ba4\u0bc8\u0b95\u0bcd\u0b95\u0bc1 \u0b85\u0ba4\u0bbf\u0bae\u0bc1\u0b95 \u0b85\u0bb2\u0bc1\u0bb5\u0bb2\u0b95\u0ba4\u0bcd\u0ba4\u0bbf\u0bb1\u0bcd\u0b95\u0bc1 \u0b9c\u0bbf\u0b95\u0bc7 \u0bb5\u0bbe\u0b9a\u0ba9\u0bcd \u0b9a\u0bc6\u0bb2\u0bcd\u0bb2\u0bbe\u0ba4\u0ba4\u0bbe\u0bb2\u0bcd \u0b85\u0ba4\u0bbf\u0bb0\u0bc1\u0baa\u0bcd\u0ba4\u0bbf\u0baf\u0bbe \u0b8e\u0ba9\u0bcd\u0bb1 \u0b95\u0bc7\u0bb3\u0bcd...","newsdate":"2026-03-24 13:09:00","standarddate":"\u0bae\u0bbe\u0bb0\u0bcd 24, 2026","date":"24-03-2026","time":"13:09","ago":"24-Mar-2026","images":"https:\/\/images.dinamalar.com\/data\/video_2024\/V1_335728_L.jpg?im=Resize,width=300","newscomment":0,"maincat":"\u0b85\u0bb0\u0b9a\u0bbf\u0baf\u0bb2\u0bcd","maincateng":"video","maincatid":"31","audio":"0","video":"1","path":"https:\/\/www.youtube.com\/embed\/UuTijU_ZPbQ","slug":"\/videos\/politics-tamil-videos\/gk-vasan--tamil-nadu-politics--tamil-maanila-congress\/335728","reacturl":"\/dinamalartv\/335728","catslug":"\/videos\/politics-tamil-videos","type":"video","duration":"01:28"},{"id":335683,"newstitle":"\u0ba4\u0bae\u0bbf\u0bb4\u0bcd \u0bae\u0bb1\u0ba8\u0bcd\u0ba4\u0bc1 \u0baa\u0bcb\u0b9a\u0bcd\u0b9a\u0bc1! Biker Press Meet Tamil | Sharwanand | Dr Rajashekar | Abhilash | Malavika Nair","newsenglishtitle":"","newsdescription":"\u0ba4\u0bae\u0bbf\u0bb4\u0bcd \u0bae\u0bb1\u0ba8\u0bcd\u0ba4\u0bc1 \u0baa\u0bcb\u0b9a\u0bcd\u0b9a\u0bc1! Biker Press Meet Tamil | Sharwanand | Dr Rajashekar | Abhilash | Malavika Nair","newsdate":"2026-03-23 00:00:00","standarddate":"\u0bae\u0bbe\u0bb0\u0bcd 23, 2026","date":"23-03-2026","time":"00:00","ago":"23-Mar-2026","images":"https:\/\/images.dinamalar.com\/data\/video_2024\/V1_335683_L.jpg?im=Resize,width=300","newscomment":0,"maincat":"\u0b9a\u0bbf\u0ba9\u0bbf\u0bae\u0bbe","maincateng":"video","maincatid":"435","audio":"0","video":"1","path":"https:\/\/www.youtube.com\/embed\/HVjXfjRrLqA","slug":"\/videos\/tamil-cinema-videos\/---biker-press-meet-tamil--sharwanand--dr-rajashekar--abhilash--malavika-nair\/335683","reacturl":"\/dinamalartv\/335683","catslug":"\/videos\/tamil-cinema-videos","type":"video","duration":"29:11"},{"id":335508,"newstitle":"\u0b95\u0bc7\u0bbe\u0bb5\u0bc8, \u0ba8\u0bc0\u0bb2\u0b95\u0bbf\u0bb0\u0bbf\u0baf\u0bbf\u0bb2\u0bcd \u0bae\u0bb4\u0bc8 \u0baa\u0bc6\u0baf\u0bcd\u0baf\u0bc1\u0bae\u0bcd Tamil Nadu Rain |South Districts Rain |Thunderstorm Alert |IMD Chenn","newsenglishtitle":"","newsdescription":"\u0ba4\u0bae\u0bbf\u0bb4\u0b95\u0ba4\u0bcd\u0ba4\u0bbf\u0bb2\u0bcd \u0b95\u0b9f\u0ba8\u0bcd\u0ba4 24 \u0bae\u0ba3\u0bbf \u0ba8\u0bc7\u0bb0\u0ba4\u0bcd\u0ba4\u0bbf\u0bb2\u0bcd \u0b93\u0bb0\u0bbf\u0bb0\u0bc1 \u0b87\u0b9f\u0b99\u0bcd\u0b95\u0bb3\u0bbf\u0bb2\u0bcd \u0bae\u0bb4\u0bc8 \u0baa\u0bc6\u0baf\u0bcd\u0ba4\u0bc1\u0bb3\u0bcd\u0bb3 \u0ba8\u0bbf\u0bb2\u0bc8\u0baf\u0bbf\u0bb2\u0bcd, \u0b85\u0b9f\u0bc1\u0ba4\u0bcd\u0ba4  1 \u0bb5\u0bbe\u0bb0\u0ba4\u0bcd\u0ba4\u0bc1\u0b95\u0bcd\u0b95\u0bc1 \u0bae\u0bb4\u0bc8...","newsdate":"2026-03-21 16:20:00","standarddate":"\u0bae\u0bbe\u0bb0\u0bcd 21, 2026","date":"21-03-2026","time":"16:20","ago":"21-Mar-2026","images":"https:\/\/images.dinamalar.com\/data\/video_2024\/V1_335508_L.jpg?im=Resize,width=300","newscomment":0,"maincat":"\u0baa\u0bca\u0ba4\u0bc1","maincateng":"video","maincatid":"32","audio":"0","video":"1","path":"https:\/\/www.youtube.com\/embed\/KwU2Xe_DAGk","slug":"\/videos\/general-tamil-videos\/tamil-nadu-rain-south-districts-rain-thunderstorm-alert-imd-chennai-heavy-rain-update\/335508","reacturl":"\/dinamalartv\/335508","catslug":"\/videos\/general-tamil-videos","type":"video","duration":":39"},{"id":335512,"newstitle":"\u0b95\u0bb3\u0bcd\u0bb3\u0bc1\u0b95\u0bcd\u0b95\u0bc1 \u0b85\u0ba9\u0bc1\u0bae\u0ba4\u0bbf \u0b95\u0bc7\u0b9f\u0bcd\u0b9f \u0bb5\u0bb4\u0b95\u0bcd\u0b95\u0bbf\u0bb2\u0bcd \u0b85\u0ba4\u0bbf\u0bb0\u0b9f\u0bbf \u0ba4\u0bbf\u0bb0\u0bc1\u0baa\u0bcd\u0baa\u0bae\u0bcd | High Court Toddy Sale | Tamil Nadu Toddy Ban Upda","newsenglishtitle":"","newsdescription":"\u0b95\u0bb3\u0bcd\u0bb3\u0bc1\u0b95\u0bcd\u0b95\u0bc1 \u0b85\u0ba9\u0bc1\u0bae\u0ba4\u0bbf \u0b95\u0bc7\u0b9f\u0bcd\u0b9f \u0bb5\u0bb4\u0b95\u0bcd\u0b95\u0bbf\u0bb2\u0bcd \u0b85\u0ba4\u0bbf\u0bb0\u0b9f\u0bbf \u0ba4\u0bbf\u0bb0\u0bc1\u0baa\u0bcd\u0baa\u0bae\u0bcd | High Court Toddy Sale | Tamil Nadu Toddy Ban Upda...","newsdate":"2026-03-21 00:00:00","standarddate":"\u0bae\u0bbe\u0bb0\u0bcd 21, 2026","date":"21-03-2026","time":"00:00","ago":"21-Mar-2026","images":"https:\/\/images.dinamalar.com\/data\/video_2024\/V1_335512_L.jpg?im=Resize,width=300","newscomment":0,"maincat":"\u0b85\u0bb0\u0b9a\u0bbf\u0baf\u0bb2\u0bcd","maincateng":"video","maincatid":"31","audio":"0","video":"1","path":"https:\/\/www.youtube.com\/embed\/rmGvddttygI","slug":"\/videos\/politics-tamil-videos\/news\/335512","reacturl":"\/dinamalartv\/335512","catslug":"\/videos\/politics-tamil-videos","type":"video","duration":"02:16"},{"id":335525,"newstitle":"\u0b95\u0b9f\u0bbf\u0ba4\u0bcd\u0ba4 \u0ba8\u0bbe\u0baf\u0bc8 \u0b95\u0bae\u0bcd\u0baa\u0bbf, \u0b95\u0b9f\u0bcd\u0b9f\u0bc8\u0baf\u0bbe\u0bb2\u0bcd \u0bb5\u0bc6\u0bb3\u0bc1\u0ba4\u0bcd\u0ba4 \u0baa\u0bc6\u0ba3\u0bcd\u0b95\u0bb3\u0bcd dog attack Tamil Nadu |pet dog attack India","newsenglishtitle":"","newsdescription":"\u0b95\u0b9f\u0bbf\u0ba4\u0bcd\u0ba4 \u0ba8\u0bbe\u0baf\u0bc8 \u0b95\u0bae\u0bcd\u0baa\u0bbf, \u0b95\u0b9f\u0bcd\u0b9f\u0bc8\u0baf\u0bbe\u0bb2\u0bcd\r\n\u0bb5\u0bc6\u0bb3\u0bc1\u0ba4\u0bcd\u0ba4 \u0baa\u0bc6\u0ba3\u0bcd\u0b95\u0bb3\u0bcd\r\ndog attack Tamil Nadu |pet dog attack India |Vedarany...","newsdate":"2026-03-21 00:00:00","standarddate":"\u0bae\u0bbe\u0bb0\u0bcd 21, 2026","date":"21-03-2026","time":"00:00","ago":"21-Mar-2026","images":"https:\/\/images.dinamalar.com\/data\/video_2024\/V1_335525_L.jpg?im=Resize,width=300","newscomment":0,"maincat":"\u0baa\u0bca\u0ba4\u0bc1","maincateng":"video","maincatid":"32","audio":"0","video":"1","path":"https:\/\/www.youtube.com\/embed\/mkc2oH52D8w","slug":"\/videos\/general-tamil-videos\/news\/335525","reacturl":"\/dinamalartv\/335525","catslug":"\/videos\/general-tamil-videos","type":"video","duration":"02:26"},{"id":335384,"newstitle":"\u0b87\u0ba9\u0bcd\u0ba9\u0bc1\u0bae\u0bcd 10 \u0ba8\u0bbe\u0b9f\u0bcd\u0b95\u0bb3\u0bbf\u0bb2\u0bcd \u0ba4\u0bc7\u0bb0\u0bcd\u0ba4\u0bb2\u0bcd \u0b85\u0bb1\u0bbf\u0b95\u0bcd\u0b95\u0bc8: \u0b95\u0bbe\u0bb0\u0bcd\u0ba4\u0bcd\u0ba4\u0bbf \u0b9a\u0bbf\u0ba4\u0bae\u0bcd\u0baa\u0bb0\u0bae\u0bcd Karthi  Chidambaram | Congress | TN Assembl","newsenglishtitle":"","newsdescription":"\u0b87\u0ba9\u0bcd\u0ba9\u0bc1\u0bae\u0bcd 10 \u0ba8\u0bbe\u0b9f\u0bcd\u0b95\u0bb3\u0bbf\u0bb2\u0bcd \u0ba4\u0bc7\u0bb0\u0bcd\u0ba4\u0bb2\u0bcd \u0b85\u0bb1\u0bbf\u0b95\u0bcd\u0b95\u0bc8: \u0b95\u0bbe\u0bb0\u0bcd\u0ba4\u0bcd\u0ba4\u0bbf \u0b9a\u0bbf\u0ba4\u0bae\u0bcd\u0baa\u0bb0\u0bae\u0bcd\r\n\u0bae\u0b95\u0bcd\u0b95\u0bb3\u0bbf\u0ba9\u0bcd \u0b95\u0bb0\u0bc1\u0ba4\u0bcd\u0ba4\u0bc1\u0b95\u0bcd\u0b95\u0bb3\u0bc8 \u0b95\u0bc7\u0b9f\u0bcd\u0b9f\u0bb1\u0bbf\u0ba8\u0bcd\u0ba4\u0bc1 \u0b87\u0ba9\u0bcd\u0ba9\u0bc1\u0bae\u0bcd...","newsdate":"2026-03-19 00:00:00","standarddate":"\u0bae\u0bbe\u0bb0\u0bcd 19, 2026","date":"19-03-2026","time":"00:00","ago":"19-Mar-2026","images":"https:\/\/images.dinamalar.com\/data\/video_2024\/V1_335384_L.jpg?im=Resize,width=300","newscomment":0,"maincat":"\u0baa\u0bca\u0ba4\u0bc1","maincateng":"video","maincatid":"32","audio":"0","video":"1","path":"https:\/\/www.youtube.com\/embed\/gwWWbvuTD7Y","slug":"\/videos\/general-tamil-videos\/karthi--chidambaram--congress--tn-assembly-election\/335384","reacturl":"\/dinamalartv\/335384","catslug":"\/videos\/general-tamil-videos","type":"video","duration":"02:03"},{"id":335356,"newstitle":"Dhurandhar The Revenge Public Review Tamil | Dhurandhar 2 Review | Ranveer Singh","newsenglishtitle":"","newsdescription":"Dhurandhar The Revenge Public Review Tamil | Dhurandhar 2 Review | Ranveer Singh","newsdate":"2026-03-19 00:00:00","standarddate":"\u0bae\u0bbe\u0bb0\u0bcd 19, 2026","date":"19-03-2026","time":"00:00","ago":"19-Mar-2026","images":"https:\/\/images.dinamalar.com\/data\/video_2024\/V1_335356_L.jpg?im=Resize,width=300","newscomment":0,"maincat":"\u0b9a\u0bbf\u0ba9\u0bbf\u0bae\u0bbe","maincateng":"video","maincatid":"435","audio":"0","video":"1","path":"https:\/\/www.youtube.com\/embed\/yuWDQnFel_g","slug":"\/videos\/tamil-cinema-videos\/dhurandhar-the-revenge-public-review-tamil--dhurandhar-2-review--ranveer-singh\/335356","reacturl":"\/dinamalartv\/335356","catslug":"\/videos\/tamil-cinema-videos","type":"video","duration":"13:40"},{"id":335258,"newstitle":"\u0b87\u0baa\u0bcd\u0baa\u0bcb \u0bae\u0bc1\u0b9f\u0bbf\u0baf\u0bb5\u0bc7 \u0bae\u0bc1\u0b9f\u0bbf\u0baf\u0bbe\u0ba4\u0bc1: \u0baa\u0bbe\u0bae\u0b95 \u0bb5\u0bb4\u0b95\u0bcd\u0b95\u0bbf\u0bb2\u0bcd \u0b90\u0b95\u0bcb\u0bb0\u0bcd\u0b9f\u0bcd \u0b85\u0ba4\u0bbf\u0bb0\u0b9f\u0bbf \u0b89\u0ba4\u0bcd\u0ba4\u0bb0\u0bb5\u0bc1  | PMK issue Tamil |Ramadoss vs Anbuman","newsenglishtitle":"","newsdescription":"\u0b87\u0baa\u0bcd\u0baa\u0bcb \u0bae\u0bc1\u0b9f\u0bbf\u0baf\u0bb5\u0bc7 \u0bae\u0bc1\u0b9f\u0bbf\u0baf\u0bbe\u0ba4\u0bc1: \u0baa\u0bbe\u0bae\u0b95 \u0bb5\u0bb4\u0b95\u0bcd\u0b95\u0bbf\u0bb2\u0bcd \u0b90\u0b95\u0bcb\u0bb0\u0bcd\u0b9f\u0bcd \u0b85\u0ba4\u0bbf\u0bb0\u0b9f\u0bbf \u0b89\u0ba4\u0bcd\u0ba4\u0bb0\u0bb5\u0bc1  | PMK issue Tamil |Ramadoss vs Anbuman...","newsdate":"2026-03-18 00:00:00","standarddate":"\u0bae\u0bbe\u0bb0\u0bcd 18, 2026","date":"18-03-2026","time":"00:00","ago":"18-Mar-2026","images":"https:\/\/images.dinamalar.com\/data\/video_2024\/V1_335258_L.jpg?im=Resize,width=300","newscomment":0,"maincat":"\u0b85\u0bb0\u0b9a\u0bbf\u0baf\u0bb2\u0bcd","maincateng":"video","maincatid":"31","audio":"0","video":"1","path":"https:\/\/www.youtube.com\/embed\/Bmvko90wbrw","slug":"\/videos\/politics-tamil-videos\/news\/335258","reacturl":"\/dinamalartv\/335258","catslug":"\/videos\/politics-tamil-videos","type":"video","duration":"01:15"},{"id":335264,"newstitle":"\u0b87\u0ba8\u0bcd\u0ba4\u0bbf\u0baf \u0b95\u0bae\u0bcd\u0baf\u0bc2\u0ba9\u0bbf\u0bb8\u0bcd\u0b9f\u0bc1\u0b95\u0bcd\u0b95\u0bc1 \u0b8e\u0ba4\u0bcd\u0ba4\u0ba9\u0bc8 \u0ba4\u0bca\u0b95\u0bc1\u0ba4\u0bbf\u0b95\u0bb3\u0bcd? DMK alliance seat sharing |CPI 5 seats Tamil Nadu","newsenglishtitle":"","newsdescription":"\u0b87\u0ba8\u0bcd\u0ba4\u0bbf\u0baf \u0b95\u0bae\u0bcd\u0baf\u0bc2\u0ba9\u0bbf\u0bb8\u0bcd\u0b9f\u0bc1\u0b95\u0bcd\u0b95\u0bc1 \u0b8e\u0ba4\u0bcd\u0ba4\u0ba9\u0bc8 \u0ba4\u0bca\u0b95\u0bc1\u0ba4\u0bbf\u0b95\u0bb3\u0bcd? DMK alliance seat sharing |CPI 5 seats Tamil Nadu | DMK CPI...","newsdate":"2026-03-18 00:00:00","standarddate":"\u0bae\u0bbe\u0bb0\u0bcd 18, 2026","date":"18-03-2026","time":"00:00","ago":"18-Mar-2026","images":"https:\/\/images.dinamalar.com\/data\/video_2024\/V1_335264_L.jpg?im=Resize,width=300","newscomment":0,"maincat":"\u0b85\u0bb0\u0b9a\u0bbf\u0baf\u0bb2\u0bcd","maincateng":"video","maincatid":"31","audio":"0","video":"1","path":"https:\/\/www.youtube.com\/embed\/UOJK_Ms2rlY","slug":"\/videos\/politics-tamil-videos\/breakingnews\/335264","reacturl":"\/dinamalartv\/335264","catslug":"\/videos\/politics-tamil-videos","type":"video","duration":"01:20"},{"id":335286,"newstitle":"\u0bb8\u0bcd\u0b9f\u0bbe\u0bb2\u0bbf\u0ba9\u0bcd \u0ba8\u0b9f\u0ba4\u0bcd\u0ba4\u0bc1\u0bae\u0bcd \u0ba8\u0bc7\u0bb0\u0bcd\u0b95\u0bbe\u0ba3\u0bb2\u0bcd \u0bb5\u0bc6\u0bb3\u0bbf\u0baf\u0bc7 \u0bb5\u0ba8\u0bcd\u0ba4\u0bc1 \u0ba4\u0bbf\u0bae\u0bc1\u0b95\u0bb5\u0bbf\u0ba9\u0bb0\u0bcd \u0b85\u0b9f\u0bbf\u0ba4\u0b9f\u0bbf Tamil Nadu assembly elections CM M.K. Sta","newsenglishtitle":"","newsdescription":"\u0ba4\u0bae\u0bbf\u0bb4\u0b95\u0bae\u0bcd \u0bae\u0bb1\u0bcd\u0bb1\u0bc1\u0bae\u0bcd \u0baa\u0bc1\u0ba4\u0bc1\u0b9a\u0bcd\u0b9a\u0bc7\u0bb0\u0bbf \r\n\u0b9a\u0b9f\u0bcd\u0b9f\u0b9a\u0baa\u0bc8 \u0ba4\u0bc7\u0bb0\u0bcd\u0ba4\u0bb2\u0bbf\u0bb2\u0bcd \u0baa\u0bc7\u0bbe\u0b9f\u0bcd\u0b9f\u0bbf\u0baf\u0bbf\u0b9f \r\n\u0bb5\u0bbf\u0bb0\u0bc1\u0baa\u0bcd\u0baa \u0bae\u0ba9\u0bc1 \u0b85\u0bb3\u0bbf\u0ba4\u0bcd\u0ba4\u0bc1\u0bb3\u0bcd\u0bb3\r\n\u0ba4\u0bbf\u0bae\u0bc1\u0b95\u0bb5\u0bbf\u0ba9\u0bb0\u0bbf\u0b9f\u0bae\u0bcd \u0b85\u0bb1...","newsdate":"2026-03-18 00:00:00","standarddate":"\u0bae\u0bbe\u0bb0\u0bcd 18, 2026","date":"18-03-2026","time":"00:00","ago":"18-Mar-2026","images":"https:\/\/images.dinamalar.com\/data\/video_2024\/V1_335286_L.jpg?im=Resize,width=300","newscomment":0,"maincat":"\u0baa\u0bca\u0ba4\u0bc1","maincateng":"video","maincatid":"32","audio":"0","video":"1","path":"https:\/\/www.youtube.com\/embed\/tVt0p_UzuC4","slug":"\/videos\/general-tamil-videos\/tamil-nadu-assembly-elections-cm-mk-stalin-interview-nerkanal---dmk-aspirants-chennai-arivalayam-killiyur-seat-issue-dmk-functionaries-fight-chennai-road\/335286","reacturl":"\/dinamalartv\/335286","catslug":"\/videos\/general-tamil-videos","type":"video","duration":"02:24"},{"id":335197,"newstitle":"\u0b8e\u0ba8\u0bcd\u0ba4\u0bc6\u0ba8\u0bcd\u0ba4 \u0bae\u0bbe\u0bb5\u0b9f\u0bcd\u0b9f\u0b99\u0bcd\u0b95\u0bb3\u0bbf\u0bb2\u0bcd \u0bae\u0bb4\u0bc8? \u0bb5\u0bbe\u0ba9\u0bbf\u0bb2\u0bc8 \u0bae\u0bc8\u0baf\u0bae\u0bcd \u0baa\u0bc1\u0ba4\u0bc1 \u0b85\u0baa\u0bcd\u0b9f\u0bc7\u0b9f\u0bcd Tamil Nadu Rain |South Districts Rain","newsenglishtitle":"","newsdescription":"\u0ba4\u0bae\u0bbf\u0bb4\u0b95\u0ba4\u0bcd\u0ba4\u0bbf\u0bb2\u0bcd \u0b95\u0b9f\u0ba8\u0bcd\u0ba4 \u0b9a\u0bbf\u0bb2 \u0ba8\u0bbe\u0b9f\u0bcd\u0b95\u0bb3\u0bbe\u0b95 \r\n\u0bb5\u0bc6\u0baf\u0bbf\u0bb2\u0bcd \u0b95\u0b9f\u0bc1\u0bae\u0bc8\u0baf\u0bbe\u0b95 \u0bb5\u0bbe\u0b9f\u0bcd\u0b9f\u0bbf \u0bb5\u0ba4\u0bc8\u0ba4\u0bcd\u0ba4\u0bc1 \u0bb5\u0bb0\u0bc1\u0bae\u0bcd \u0ba8\u0bbf\u0bb2\u0bc8\u0baf\u0bbf\u0bb2\u0bcd, \u0ba8\u0bc7\u0bb1\u0bcd\u0bb1\u0bc1 \u0ba4\u0bae\u0bbf\u0bb4\u0b95\u0ba4\u0bcd\u0ba4\u0bbf\u0ba9\u0bcd \u0b93...","newsdate":"2026-03-17 16:13:00","standarddate":"\u0bae\u0bbe\u0bb0\u0bcd 17, 2026","date":"17-03-2026","time":"16:13","ago":"17-Mar-2026","images":"https:\/\/images.dinamalar.com\/data\/video_2024\/V1_335197_L.jpg?im=Resize,width=300","newscomment":0,"maincat":"\u0baa\u0bca\u0ba4\u0bc1","maincateng":"video","maincatid":"32","audio":"0","video":"1","path":"https:\/\/www.youtube.com\/embed\/90GOJRXNGvc","slug":"\/videos\/general-tamil-videos\/tamilnadurain-weatherupdate-imdalert\/335197","reacturl":"\/dinamalartv\/335197","catslug":"\/videos\/general-tamil-videos","type":"video","duration":"01:55"},{"id":335180,"newstitle":"\u0bb5\u0bbf\u0b9c\u0baf\u0bc8 \u0b95\u0bc2\u0b9f\u0bcd\u0b9f\u0ba3\u0bbf\u0baf\u0bbf\u0bb2\u0bcd \u0b9a\u0bc7\u0bb0 \u0bb5\u0bbf\u0b9f\u0bbe\u0bae\u0bb2\u0bcd \u0ba4\u0b9f\u0bc1\u0b95\u0bcd\u0b95\u0bc1\u0bae\u0bcd 2 \u0b86\u0b95\u0bcd\u0b95\u0bb3\u0bcd | Vijay TVK Alliance | John Arokiasamy | BJP","newsenglishtitle":"","newsdescription":"\u0b95\u0bbf\u0bb3\u0bc8\u0bae\u0bc7\u0b95\u0bcd\u0bb8\u0bcd \u0ba8\u0bc6\u0bb0\u0bc1\u0b99\u0bcd\u0b95\u0bbf \u0bb5\u0ba8\u0bcd\u0ba4 \u0ba8\u0bc7\u0bb0\u0ba4\u0bcd\u0ba4\u0bbf\u0bb2\u0bcd\r\n\u0bb5\u0bbf\u0b9c\u0baf\u0bc8 \u0b9a\u0bc7\u0bb0 \u0bb5\u0bbf\u0b9f\u0bbe\u0bae\u0bb2\u0bcd \u0ba4\u0b9f\u0bc1\u0b95\u0bcd\u0b95\u0bc1\u0bae\u0bcd \u0b87\u0bb0\u0bc1\u0bb5\u0bb0\u0bcd \r\n\r\n\u0ba8\u0b9f\u0bbf\u0b95\u0bb0\u0bcd \u0bb5\u0bbf\u0b9c\u0baf\u0bbf\u0ba9\u0bcd \u0ba4\u0bb5\u0bc6\u0b95 \u0b95\u0b9f\u0bcd\u0b9a\u0bbf...","newsdate":"2026-03-17 07:20:00","standarddate":"\u0bae\u0bbe\u0bb0\u0bcd 17, 2026","date":"17-03-2026","time":"07:20","ago":"17-Mar-2026","images":"https:\/\/images.dinamalar.com\/data\/video_2024\/V1_335180_L.jpg?im=Resize,width=300","newscomment":0,"maincat":"\u0b85\u0bb0\u0b9a\u0bbf\u0baf\u0bb2\u0bcd","maincateng":"video","maincatid":"31","audio":"0","video":"1","path":"https:\/\/www.youtube.com\/embed\/DQ3v5djV9zg","slug":"\/videos\/politics-tamil-videos\/vijay-tvk-alliance--tamil-nadu-bjp-coalition\/335180","reacturl":"\/dinamalartv\/335180","catslug":"\/videos\/politics-tamil-videos","type":"video","duration":"02:17"}],"trendingkeywords":[{"title":"TRENDING TOPICS","data":[{"key":"\u0b9a\u0bbe\u0ba4\u0bcd\u0ba4\u0bbe\u0ba9\u0bcd\u0b95\u0bc1\u0bb3\u0bae\u0bcd","slug":"\/search"},{"key":"\u0bae\u0bb0\u0ba3 \u0ba4\u0ba3\u0bcd\u0b9f\u0ba9\u0bc8","slug":"\/search"},{"key":"\u0b95\u0bb0\u0bc1\u0ba4\u0bcd\u0ba4\u0bc1\u0b95\u0bcd\u0b95\u0ba3\u0bbf\u0baa\u0bcd\u0baa\u0bc1","slug":"\/search"},{"key":"\u0ba4\u0bbf\u0ba9\u0bae\u0bb2\u0bb0\u0bcd","slug":"\/search"},{"key":"\u0baa\u0bbe\u0b9c","slug":"\/search"},{"key":"\u0b95\u0bbe\u0b99\u0bcd\u0b95\u0bbf\u0bb0\u0bb8\u0bcd","slug":"\/search"},{"key":"\u0ba4\u0bae\u0bbf\u0bb4\u0b95 \u0ba4\u0bc7\u0bb0\u0bcd\u0ba4\u0bb2\u0bcd","slug":"\/search"}]}],"pagination":{"current_page":1,"per_page":15,"total":512,"last_page":35},"filter":[{"name":"All","id":"1","ename":"all"},{"name":"\u0b87\u0ba9\u0bcd\u0bb1\u0bc1","id":"2","ename":"today"},{"name":"\u0b95\u0b9f\u0ba8\u0bcd\u0ba4 \u0bb5\u0bbe\u0bb0\u0bae\u0bcd","id":"3","ename":"weekly"},{"name":"\u0b95\u0b9f\u0ba8\u0bcd\u0ba4 \u0bae\u0bbe\u0ba4\u0bae\u0bcd","id":"4","ename":"monthly"},{"name":"\u0b95\u0b9f\u0ba8\u0bcd\u0ba4 \u0bb5\u0bb0\u0bc1\u0b9f\u0bae\u0bcd","id":"5","ename":"yearly"},{"name":"\u0ba4\u0bc7\u0ba4\u0bbf \u0bb5\u0bb0\u0bae\u0bcd\u0baa\u0bc8\u0ba4\u0bcd \u0ba4\u0bc7\u0bb0\u0bcd\u0ba8\u0bcd\u0ba4\u0bc6\u0b9f\u0bc1\u0b95\u0bcd\u0b95\u0bb5\u0bc1\u0bae\u0bcd","id":"6","ename":"date search"},{"name":"\u0ba4\u0bc7\u0ba4\u0bbf\u0baf\u0bc8\u0ba4\u0bcd \u0ba4\u0bc7\u0bb0\u0bcd\u0ba8\u0bcd\u0ba4\u0bc6\u0b9f\u0bc1\u0b95\u0bcd\u0b95\u0bb5\u0bc1\u0bae\u0bcd","id":"7","ename":"date"}],"categoryfilter":[{"name":"all","id":"1","ename":"all","count":512},{"name":"\u0b9a\u0bc6\u0baf\u0bcd\u0ba4\u0bbf\u0b95\u0bb3\u0bcd","id":"2","ename":"news","count":175},{"name":"\u0bb5\u0bc0\u0b9f\u0bbf\u0baf\u0bcb","id":"4","ename":"video","count":229},{"name":"\u0baa\u0bcb\u0b9f\u0bcd\u0b9f\u0bcb","id":"3","ename":"photo","count":13},{"name":"\u0b89\u0bb2\u0b95 \u0ba4\u0bae\u0bbf\u0bb4\u0bb0\u0bcd","id":"7","ename":"nri","count":80},{"name":"\u0b95\u0bb2\u0bcd\u0bb5\u0bbf\u0bae\u0bb2\u0bb0\u0bcd","id":"8","ename":"kalvimalar","count":15}],"metadetails":{"metatitle":"\u0b9a\u0bae\u0bc0\u0baa\u0ba4\u0bcd\u0ba4\u0bbf\u0baf \u0ba4\u0bc7\u0b9f\u0bb2\u0bcd| Read Latest search on about tamil","metadescription":"\u0b9a\u0bc6\u0baf\u0bcd\u0ba4\u0bbf \u0b9a\u0bbe\u0bb0\u0bcd\u0ba8\u0bcd\u0ba4 \u0b89\u0b99\u0bcd\u0b95\u0bb3\u0bcd \u0ba4\u0bc7\u0b9f\u0bb2\u0bcd \u0bae\u0bc1\u0b9f\u0bbf\u0b95\u0bb3\u0bc8 \u0b87\u0b99\u0bcd\u0b95\u0bc7 \u0b95\u0bbe\u0ba3\u0bb2\u0bbe\u0bae\u0bcd","metakey":"News Search, \u0ba4\u0bc7\u0b9f\u0bb2\u0bcd \u0bae\u0bc1\u0b9f\u0bbf\u0bb5\u0bc1\u0b95\u0bb3\u0bcd, \u0b9a\u0bc6\u0baf\u0bcd\u0ba4\u0bbf\u0b95\u0bb3\u0bcd, \u0b95\u0b9f\u0bcd\u0b9f\u0bc1\u0bb0\u0bc8\u0b95\u0bb3\u0bcd, \u0baa\u0bc1\u0b95\u0bc8\u0baa\u0bcd\u0baa\u0b9f\u0b99\u0bcd\u0b95\u0bb3\u0bcd, \u0bb5\u0bc0\u0b9f\u0bbf\u0baf\u0bcb \u0ba8\u0bbf\u0baf\u0bc2\u0bb8\u0bcd, \u0ba4\u0bca\u0b9f\u0bb0\u0bcd\u0baa\u0bc1\u0b9f\u0bc8\u0baf \u0b9a\u0bc6\u0baf\u0bcd\u0ba4\u0bbf\u0b95\u0bb3\u0bcd, \u0b89\u0b99\u0bcd\u0b95\u0bb3\u0bcd \u0bb5\u0bbf\u0bb0\u0bc1\u0baa\u0bcd\u0baa \u0b9a\u0bc6\u0baf\u0bcd\u0ba4\u0bbf\u0b95\u0bb3\u0bcd, Search results, news, articles, photos, video news, related news, your favorite news","heading":"\u0b9a\u0bae\u0bc0\u0baa\u0ba4\u0bcd\u0ba4\u0bbf\u0baf \u0ba4\u0bc7\u0b9f\u0bb2\u0bcd| Read Latest search on about tamil","metahttpequiv":"text\/html; charset=utf-8","viewport":"width=device-width, minimum-scale=1, initial-scale=1.0, maximum-scale=5.0","newstitle":"\u0b9a\u0bae\u0bc0\u0baa\u0ba4\u0bcd\u0ba4\u0bbf\u0baf \u0ba4\u0bc7\u0b9f\u0bb2\u0bcd| Read Latest search on about  tamil","newskeywords":"News Search, \u0ba4\u0bc7\u0b9f\u0bb2\u0bcd \u0bae\u0bc1\u0b9f\u0bbf\u0bb5\u0bc1\u0b95\u0bb3\u0bcd, \u0b9a\u0bc6\u0baf\u0bcd\u0ba4\u0bbf\u0b95\u0bb3\u0bcd, \u0b95\u0b9f\u0bcd\u0b9f\u0bc1\u0bb0\u0bc8\u0b95\u0bb3\u0bcd, \u0baa\u0bc1\u0b95\u0bc8\u0baa\u0bcd\u0baa\u0b9f\u0b99\u0bcd\u0b95\u0bb3\u0bcd, \u0bb5\u0bc0\u0b9f\u0bbf\u0baf\u0bcb \u0ba8\u0bbf\u0baf\u0bc2\u0bb8\u0bcd, \u0ba4\u0bca\u0b9f\u0bb0\u0bcd\u0baa\u0bc1\u0b9f\u0bc8\u0baf \u0b9a\u0bc6\u0baf\u0bcd\u0ba4\u0bbf\u0b95\u0bb3\u0bcd, \u0b89\u0b99\u0bcd\u0b95\u0bb3\u0bcd \u0bb5\u0bbf\u0bb0\u0bc1\u0baa\u0bcd\u0baa \u0b9a\u0bc6\u0baf\u0bcd\u0ba4\u0bbf\u0b95\u0bb3\u0bcd, Search results, news, articles, photos, video news, related news, your favorite news","robots":"INDEX, FOLLOW","robots1":"max-image-preview:large","language":"ta","author":"\u0ba4\u0bbf\u0ba9\u0bae\u0bb2\u0bb0\u0bcd","copyright":"Dinamalar","link":"\/search\/tamil","title":"\u0b9a\u0bae\u0bc0\u0baa\u0ba4\u0bcd\u0ba4\u0bbf\u0baf \u0ba4\u0bc7\u0b9f\u0bb2\u0bcd| Read Latest search on about  tamil","description":"\u0b9a\u0bc6\u0baf\u0bcd\u0ba4\u0bbf \u0b9a\u0bbe\u0bb0\u0bcd\u0ba8\u0bcd\u0ba4 \u0b89\u0b99\u0bcd\u0b95\u0bb3\u0bcd \u0ba4\u0bc7\u0b9f\u0bb2\u0bcd \u0bae\u0bc1\u0b9f\u0bbf\u0b95\u0bb3\u0bc8 \u0b87\u0b99\u0bcd\u0b95\u0bc7 \u0b95\u0bbe\u0ba3\u0bb2\u0bbe\u0bae\u0bcd","sitename":"https:\/\/www.dinamalar.com","type":"article","twittercard":"summary_large_image","twittersite":"@dinamalarweb","twittertitle":"\u0b9a\u0bae\u0bc0\u0baa\u0ba4\u0bcd\u0ba4\u0bbf\u0baf \u0ba4\u0bc7\u0b9f\u0bb2\u0bcd| Read Latest search on about  tamil","twitterurl":"summary_large_image","twitterdescription":"\u0b9a\u0bc6\u0baf\u0bcd\u0ba4\u0bbf \u0b9a\u0bbe\u0bb0\u0bcd\u0ba8\u0bcd\u0ba4 \u0b89\u0b99\u0bcd\u0b95\u0bb3\u0bcd \u0ba4\u0bc7\u0b9f\u0bb2\u0bcd \u0bae\u0bc1\u0b9f\u0bbf\u0b95\u0bb3\u0bc8 \u0b87\u0b99\u0bcd\u0b95\u0bc7 \u0b95\u0bbe\u0ba3\u0bb2\u0bbe\u0bae\u0bcd","twittercreator":"dinamalar","twitterdomain":"https:\/\/www.dinamalar.com"},"mostcommentedlink":"\/mostcommented","taboola_ads":{"desktop":{"midmain":{"mode":"thumbnails-k","container":"taboola-mid-main-column-thumbnails","placement":"Mid Main Column Thumbnails","target_type":"mix"},"rightrail":{"mode":"thumbnails-rr2","container":"taboola-right-rail-thumbnails-1","placement":"Right Rail Thumbnails 1","target_type":"mix"},"belowpage":{"mode":"thumbnails-h","container":"taboola-below-page-thumbnails---general","placement":"Below Page Thumbnails - General","target_type":"mix"}},"mobile":{"midmain":{"mode":"thumbnails-e-amp","container":"taboola-mobile-mid-main-columns","placement":"Mobile Mid Main Columns","target_type":"mix"}}},"googleads":{"desktopads":{"midRight1":{"slotId":"home_right_pos2","ad_unit":"Demo_Roadblock_Desktop_BTF_300x250","ad_size":300,"ad_size1":250,"viewport":1280,"viewport1":800},"midRight2":{"slotId":"home_right_pos4","ad_unit":"Demo_Roadblock_Desktop_BTF_300x250","ad_size":300,"ad_size1":250,"viewport":1280,"viewport1":800},"belowRight":{"slotId":"home_right_pos6","ad_unit":"Demo_Roadblock_Desktop_BTF_300x600_3","ad_size":300,"ad_size1":600,"viewport":1280,"viewport1":800},"midhome":{"slotId":"home_middle_pos1","ad_unit":"Demo_2_Roadblock_Desktop_728x90_2","ad_size":728,"ad_size1":90,"viewport":1280,"viewport1":800},"midhome2":{"slotId":"home_middle_pos2","ad_unit":"Demo_2_Roadblock_Desktop_728x90_3","ad_size":728,"ad_size1":90,"viewport":1280,"viewport1":800},"top970x90":{"slotId":"ROS_ATF_970x90","ad_unit":"Dinamalar_Desktop_ROS_ATF_970x90","ad_size":970,"ad_size1":90,"viewport":1280,"viewport1":800},"overlay":{"slotId":"ROS_Overlay-1x1","ad_unit":"Dinamalar_Desktop_ROS_Overlay-1x1","ad_size":1,"ad_size1":1,"viewport":1280,"viewport1":800},"outstream":{"slotId":"ROS_MTF_Outstream-1x1","ad_unit":"Dinamalar_Desktop_ROS_MTF_Outstream","ad_size":1,"ad_size1":1,"viewport":1280,"viewport1":800},"top300X600":{"slotId":"ROS_ATF_300x600","ad_unit":"Dinamalar_Desktop_ROS_ATF_300x600","ad_size":300,"ad_size1":600,"viewport":1280,"viewport1":800},"btf728X90":{"slotId":"ROS_BTF_728x90","ad_unit":"Dinamalar_Desktop_ROS_BTF_728x90","ad_size":728,"ad_size1":90,"viewport":1280,"viewport1":800}},"mobileads":{"top_300X250":{"slotId":"ROS_ATF_300x250","ad_unit":"Dinamalar_MobileSite_Non_AMP_ROS_ATF_300x250","ad_size":300,"ad_size1":250,"viewport":0,"viewport1":0},"mid_300x250":{"slotId":"ROS_MTF_300x250","ad_unit":"Dinamalar_MobileSite_Non_AMP_ROS_MTF_300x250","ad_size":300,"ad_size1":250,"viewport":0,"viewport1":0},"bottom_300x250":{"slotId":"ROS_BTF_300x250","ad_unit":"Dinamalar_MobileSite_Non_AMP_ROS_BTF_300x250","ad_size":300,"ad_size1":250,"viewport":0,"viewport1":0}}}},"exception":null}
